2019-03-03 20:05:17,340 INFO: Microblog startup [in /home/serge/dev/python/flask/microblog/app/__init__.py:89]
2019-03-03 20:06:31,066 INFO: Microblog startup [in /home/serge/dev/python/flask/microblog/app/__init__.py:89]
2019-03-03 20:06:44,050 INFO: Microblog startup [in /home/serge/dev/python/flask/microblog/app/__init__.py:89]
2019-03-03 20:06:47,235 INFO: Microblog startup [in /home/serge/dev/python/flask/microblog/app/__init__.py:89]
2019-03-03 20:06:56,346 INFO: Microblog startup [in /home/serge/dev/python/flask/microblog/app/__init__.py:89]
2019-03-03 20:07:06,303 INFO: Microblog startup [in /home/serge/dev/python/flask/microblog/app/__init__.py:89]
2019-03-14 12:03:56,552 INFO: Microblog startup [in /home/serge/dev/python/flask/microblog/app/__init__.py:89]
2019-03-14 12:04:18,160 INFO: Microblog startup [in /home/serge/dev/python/flask/microblog/app/__init__.py:89]
2019-03-14 12:05:55,613 INFO: Microblog startup [in /home/serge/dev/python/flask/microblog/app/__init__.py:89]
2019-03-17 10:09:02,863 INFO: Microblog startup [in /home/serge/dev/python/flask/microblog/app/__init__.py:89]
2019-03-17 10:09:26,722 INFO: Microblog startup [in /home/serge/dev/python/flask/microblog/app/__init__.py:89]
2019-03-17 10:09:45,562 INFO: Microblog startup [in /home/serge/dev/python/flask/microblog/app/__init__.py:89]
2019-03-17 10:09:53,435 INFO: Microblog startup [in /home/serge/dev/python/flask/microblog/app/__init__.py:89]
2019-03-17 10:20:18,695 INFO: Microblog startup [in /home/serge/dev/python/flask/microblog/app/__init__.py:89]
2019-03-17 10:20:58,124 ERROR: Exception on /api/users [POST] [in /home/serge/dev/python/flask/microblog/venv/lib/python3.6/site-packages/flask/app.py:1761]
Traceback (most recent call last):
  File "/home/serge/dev/python/flask/microblog/venv/lib/python3.6/site-packages/flask/app.py", line 2292, in wsgi_app
    response = self.full_dispatch_request()
  File "/home/serge/dev/python/flask/microblog/venv/lib/python3.6/site-packages/flask/app.py", line 1815, in full_dispatch_request
    rv = self.handle_user_exception(e)
  File "/home/serge/dev/python/flask/microblog/venv/lib/python3.6/site-packages/flask/app.py", line 1718, in handle_user_exception
    reraise(exc_type, exc_value, tb)
  File "/home/serge/dev/python/flask/microblog/venv/lib/python3.6/site-packages/flask/_compat.py", line 35, in reraise
    raise value
  File "/home/serge/dev/python/flask/microblog/venv/lib/python3.6/site-packages/flask/app.py", line 1813, in full_dispatch_request
    rv = self.dispatch_request()
  File "/home/serge/dev/python/flask/microblog/venv/lib/python3.6/site-packages/flask/app.py", line 1799, in dispatch_request
    return self.view_functions[rule.endpoint](**req.view_args)
  File "/home/serge/dev/python/flask/microblog/app/api/users.py", line 51, in create_user
    if User.query.filter_by(username=data['username']).first():
  File "/home/serge/dev/python/flask/microblog/venv/lib/python3.6/site-packages/flask_sqlalchemy/__init__.py", line 512, in __get__
    mapper = orm.class_mapper(type)
  File "/home/serge/dev/python/flask/microblog/venv/lib/python3.6/site-packages/sqlalchemy/orm/base.py", line 421, in class_mapper
    mapper = _inspect_mapped_class(class_, configure=configure)
  File "/home/serge/dev/python/flask/microblog/venv/lib/python3.6/site-packages/sqlalchemy/orm/base.py", line 400, in _inspect_mapped_class
    mapper._configure_all()
  File "/home/serge/dev/python/flask/microblog/venv/lib/python3.6/site-packages/sqlalchemy/orm/mapper.py", line 1222, in _configure_all
    configure_mappers()
  File "/home/serge/dev/python/flask/microblog/venv/lib/python3.6/site-packages/sqlalchemy/orm/mapper.py", line 2872, in configure_mappers
    mapper._post_configure_properties()
  File "/home/serge/dev/python/flask/microblog/venv/lib/python3.6/site-packages/sqlalchemy/orm/mapper.py", line 1765, in _post_configure_properties
    prop.init()
  File "/home/serge/dev/python/flask/microblog/venv/lib/python3.6/site-packages/sqlalchemy/orm/interfaces.py", line 184, in init
    self.do_init()
  File "/home/serge/dev/python/flask/microblog/venv/lib/python3.6/site-packages/sqlalchemy/orm/relationships.py", line 1653, in do_init
    self._process_dependent_arguments()
  File "/home/serge/dev/python/flask/microblog/venv/lib/python3.6/site-packages/sqlalchemy/orm/relationships.py", line 1710, in _process_dependent_arguments
    self.target = self.mapper.mapped_table
  File "/home/serge/dev/python/flask/microblog/venv/lib/python3.6/site-packages/sqlalchemy/util/langhelpers.py", line 764, in __get__
    obj.__dict__[self.__name__] = result = self.fget(obj)
  File "/home/serge/dev/python/flask/microblog/venv/lib/python3.6/site-packages/sqlalchemy/orm/relationships.py", line 1626, in mapper
    argument = self.argument()
  File "/home/serge/dev/python/flask/microblog/venv/lib/python3.6/site-packages/sqlalchemy/ext/declarative/clsregistry.py", line 281, in __call__
    x = eval(self.arg, globals(), self._dict)
  File "<string>", line 1, in <module>
  File "/home/serge/dev/python/flask/microblog/venv/lib/python3.6/site-packages/sqlalchemy/util/_collections.py", line 729, in __missing__
    self[key] = val = self.creator(key)
  File "/home/serge/dev/python/flask/microblog/venv/lib/python3.6/site-packages/sqlalchemy/ext/declarative/clsregistry.py", line 262, in _access_cls
    return _determine_container(key, cls._decl_class_registry[key])
  File "/home/serge/dev/python/flask/microblog/venv/lib/python3.6/site-packages/sqlalchemy/ext/declarative/clsregistry.py", line 246, in _determine_container
    value = value.attempt_get([], key)
  File "/home/serge/dev/python/flask/microblog/venv/lib/python3.6/site-packages/sqlalchemy/ext/declarative/clsregistry.py", line 91, in attempt_get
    (".".join(path + [key]))
sqlalchemy.exc.InvalidRequestError: Multiple classes found for path "User" in the registry of this declarative base. Please use a fully module-qualified path.
2019-03-17 10:24:52,786 ERROR: Exception on /api/users [POST] [in /home/serge/dev/python/flask/microblog/venv/lib/python3.6/site-packages/flask/app.py:1761]
Traceback (most recent call last):
  File "/home/serge/dev/python/flask/microblog/venv/lib/python3.6/site-packages/flask/app.py", line 2292, in wsgi_app
    response = self.full_dispatch_request()
  File "/home/serge/dev/python/flask/microblog/venv/lib/python3.6/site-packages/flask/app.py", line 1815, in full_dispatch_request
    rv = self.handle_user_exception(e)
  File "/home/serge/dev/python/flask/microblog/venv/lib/python3.6/site-packages/flask/app.py", line 1718, in handle_user_exception
    reraise(exc_type, exc_value, tb)
  File "/home/serge/dev/python/flask/microblog/venv/lib/python3.6/site-packages/flask/_compat.py", line 35, in reraise
    raise value
  File "/home/serge/dev/python/flask/microblog/venv/lib/python3.6/site-packages/flask/app.py", line 1813, in full_dispatch_request
    rv = self.dispatch_request()
  File "/home/serge/dev/python/flask/microblog/venv/lib/python3.6/site-packages/flask/app.py", line 1799, in dispatch_request
    return self.view_functions[rule.endpoint](**req.view_args)
  File "/home/serge/dev/python/flask/microblog/app/api/users.py", line 51, in create_user
    if User.query.filter_by(username=data['username']).first():
  File "/home/serge/dev/python/flask/microblog/venv/lib/python3.6/site-packages/flask_sqlalchemy/__init__.py", line 512, in __get__
    mapper = orm.class_mapper(type)
  File "/home/serge/dev/python/flask/microblog/venv/lib/python3.6/site-packages/sqlalchemy/orm/base.py", line 421, in class_mapper
    mapper = _inspect_mapped_class(class_, configure=configure)
  File "/home/serge/dev/python/flask/microblog/venv/lib/python3.6/site-packages/sqlalchemy/orm/base.py", line 400, in _inspect_mapped_class
    mapper._configure_all()
  File "/home/serge/dev/python/flask/microblog/venv/lib/python3.6/site-packages/sqlalchemy/orm/mapper.py", line 1222, in _configure_all
    configure_mappers()
  File "/home/serge/dev/python/flask/microblog/venv/lib/python3.6/site-packages/sqlalchemy/orm/mapper.py", line 2869, in configure_mappers
    raise e
sqlalchemy.exc.InvalidRequestError: One or more mappers failed to initialize - can't proceed with initialization of other mappers. Triggering mapper: 'Mapper|Role|roles'. Original exception was: Multiple classes found for path "User" in the registry of this declarative base. Please use a fully module-qualified path.
2019-03-17 10:34:31,877 INFO: Microblog startup [in /home/serge/dev/python/flask/microblog/app/__init__.py:89]
2019-03-17 11:15:02,186 INFO: Microblog startup [in /home/serge/dev/python/flask/microblog/app/__init__.py:89]
2019-03-17 11:15:11,087 INFO: Microblog startup [in /home/serge/dev/python/flask/microblog/app/__init__.py:89]
2019-03-17 11:16:45,922 INFO: Microblog startup [in /home/serge/dev/python/flask/microblog/app/__init__.py:89]
2019-03-17 11:16:59,699 INFO: Microblog startup [in /home/serge/dev/python/flask/microblog/app/__init__.py:89]
2019-03-17 11:18:07,051 INFO: Microblog startup [in /home/serge/dev/python/flask/microblog/app/__init__.py:89]
2019-03-17 11:24:04,125 INFO: Microblog startup [in /home/serge/dev/python/flask/microblog/app/__init__.py:89]
2019-03-17 11:24:18,563 INFO: Microblog startup [in /home/serge/dev/python/flask/microblog/app/__init__.py:89]
2019-03-17 11:24:55,443 INFO: Microblog startup [in /home/serge/dev/python/flask/microblog/app/__init__.py:89]
2019-03-17 11:26:08,691 INFO: Microblog startup [in /home/serge/dev/python/flask/microblog/app/__init__.py:89]
2019-03-17 11:27:58,446 INFO: Microblog startup [in /home/serge/dev/python/flask/microblog/app/__init__.py:89]
2019-03-17 11:28:27,617 INFO: Microblog startup [in /home/serge/dev/python/flask/microblog/app/__init__.py:89]
2019-03-17 11:29:34,587 INFO: Microblog startup [in /home/serge/dev/python/flask/microblog/app/__init__.py:89]
2019-03-17 11:31:46,805 INFO: Microblog startup [in /home/serge/dev/python/flask/microblog/app/__init__.py:89]
2019-03-17 11:31:55,022 INFO: Microblog startup [in /home/serge/dev/python/flask/microblog/app/__init__.py:89]
2019-03-17 11:32:31,768 INFO: Microblog startup [in /home/serge/dev/python/flask/microblog/app/__init__.py:89]
