2019-03-17 12:11:42,963 ERROR: Exception on /api/users [GET] [in /home/serge/dev/python/flask/microblog/venv/lib/python3.6/site-packages/flask/app.py:1761]
Traceback (most recent call last):
  File "/home/serge/dev/python/flask/microblog/venv/lib/python3.6/site-packages/flask/app.py", line 2292, in wsgi_app
    response = self.full_dispatch_request()
  File "/home/serge/dev/python/flask/microblog/venv/lib/python3.6/site-packages/flask/app.py", line 1815, in full_dispatch_request
    rv = self.handle_user_exception(e)
  File "/home/serge/dev/python/flask/microblog/venv/lib/python3.6/site-packages/flask/app.py", line 1718, in handle_user_exception
    reraise(exc_type, exc_value, tb)
  File "/home/serge/dev/python/flask/microblog/venv/lib/python3.6/site-packages/flask/_compat.py", line 35, in reraise
    raise value
  File "/home/serge/dev/python/flask/microblog/venv/lib/python3.6/site-packages/flask/app.py", line 1813, in full_dispatch_request
    rv = self.dispatch_request()
  File "/home/serge/dev/python/flask/microblog/venv/lib/python3.6/site-packages/flask/app.py", line 1799, in dispatch_request
    return self.view_functions[rule.endpoint](**req.view_args)
  File "/home/serge/dev/python/flask/microblog/venv/lib/python3.6/site-packages/flask_httpauth.py", line 93, in decorated
    return f(*args, **kwargs)
  File "/home/serge/dev/python/flask/microblog/app/api/users.py", line 20, in get_users
    return jsonify(User.to_dict_col(users=users))
  File "/home/serge/dev/python/flask/microblog/app/models/users.py", line 117, in to_dict_col
    field: users[x],
IndexError: list index out of range
2019-03-17 12:12:43,736 INFO: Microblog startup [in /home/serge/dev/python/flask/microblog/app/__init__.py:89]
2019-03-17 12:12:47,228 ERROR: Exception on /api/users [GET] [in /home/serge/dev/python/flask/microblog/venv/lib/python3.6/site-packages/flask/app.py:1761]
Traceback (most recent call last):
  File "/home/serge/dev/python/flask/microblog/venv/lib/python3.6/site-packages/flask/app.py", line 2292, in wsgi_app
    response = self.full_dispatch_request()
  File "/home/serge/dev/python/flask/microblog/venv/lib/python3.6/site-packages/flask/app.py", line 1815, in full_dispatch_request
    rv = self.handle_user_exception(e)
  File "/home/serge/dev/python/flask/microblog/venv/lib/python3.6/site-packages/flask/app.py", line 1718, in handle_user_exception
    reraise(exc_type, exc_value, tb)
  File "/home/serge/dev/python/flask/microblog/venv/lib/python3.6/site-packages/flask/_compat.py", line 35, in reraise
    raise value
  File "/home/serge/dev/python/flask/microblog/venv/lib/python3.6/site-packages/flask/app.py", line 1813, in full_dispatch_request
    rv = self.dispatch_request()
  File "/home/serge/dev/python/flask/microblog/venv/lib/python3.6/site-packages/flask/app.py", line 1799, in dispatch_request
    return self.view_functions[rule.endpoint](**req.view_args)
  File "/home/serge/dev/python/flask/microblog/venv/lib/python3.6/site-packages/flask_httpauth.py", line 93, in decorated
    return f(*args, **kwargs)
  File "/home/serge/dev/python/flask/microblog/app/api/users.py", line 20, in get_users
    return jsonify(User.to_dict_col(users=users))
  File "/home/serge/dev/python/flask/microblog/app/models/users.py", line 117, in to_dict_col
    field: users[x],
TypeError: list indices must be integers or slices, not str
2019-03-17 12:13:37,513 INFO: Microblog startup [in /home/serge/dev/python/flask/microblog/app/__init__.py:89]
2019-03-17 12:13:42,305 ERROR: Exception on /api/users [GET] [in /home/serge/dev/python/flask/microblog/venv/lib/python3.6/site-packages/flask/app.py:1761]
Traceback (most recent call last):
  File "/home/serge/dev/python/flask/microblog/venv/lib/python3.6/site-packages/flask/app.py", line 2292, in wsgi_app
    response = self.full_dispatch_request()
  File "/home/serge/dev/python/flask/microblog/venv/lib/python3.6/site-packages/flask/app.py", line 1815, in full_dispatch_request
    rv = self.handle_user_exception(e)
  File "/home/serge/dev/python/flask/microblog/venv/lib/python3.6/site-packages/flask/app.py", line 1718, in handle_user_exception
    reraise(exc_type, exc_value, tb)
  File "/home/serge/dev/python/flask/microblog/venv/lib/python3.6/site-packages/flask/_compat.py", line 35, in reraise
    raise value
  File "/home/serge/dev/python/flask/microblog/venv/lib/python3.6/site-packages/flask/app.py", line 1813, in full_dispatch_request
    rv = self.dispatch_request()
  File "/home/serge/dev/python/flask/microblog/venv/lib/python3.6/site-packages/flask/app.py", line 1799, in dispatch_request
    return self.view_functions[rule.endpoint](**req.view_args)
  File "/home/serge/dev/python/flask/microblog/venv/lib/python3.6/site-packages/flask_httpauth.py", line 93, in decorated
    return f(*args, **kwargs)
  File "/home/serge/dev/python/flask/microblog/app/api/users.py", line 20, in get_users
    return jsonify(User.to_dict_col(users=users))
  File "/home/serge/dev/python/flask/microblog/app/models/users.py", line 115, in to_dict_col
    for x,field in ['id','username', 'email', 'last_name','first_name'],range(len(users)):
ValueError: too many values to unpack (expected 2)
2019-03-17 12:16:14,217 INFO: Microblog startup [in /home/serge/dev/python/flask/microblog/app/__init__.py:89]
2019-03-17 12:16:19,058 ERROR: Exception on /api/users [GET] [in /home/serge/dev/python/flask/microblog/venv/lib/python3.6/site-packages/flask/app.py:1761]
Traceback (most recent call last):
  File "/home/serge/dev/python/flask/microblog/venv/lib/python3.6/site-packages/flask/app.py", line 2292, in wsgi_app
    response = self.full_dispatch_request()
  File "/home/serge/dev/python/flask/microblog/venv/lib/python3.6/site-packages/flask/app.py", line 1815, in full_dispatch_request
    rv = self.handle_user_exception(e)
  File "/home/serge/dev/python/flask/microblog/venv/lib/python3.6/site-packages/flask/app.py", line 1718, in handle_user_exception
    reraise(exc_type, exc_value, tb)
  File "/home/serge/dev/python/flask/microblog/venv/lib/python3.6/site-packages/flask/_compat.py", line 35, in reraise
    raise value
  File "/home/serge/dev/python/flask/microblog/venv/lib/python3.6/site-packages/flask/app.py", line 1813, in full_dispatch_request
    rv = self.dispatch_request()
  File "/home/serge/dev/python/flask/microblog/venv/lib/python3.6/site-packages/flask/app.py", line 1799, in dispatch_request
    return self.view_functions[rule.endpoint](**req.view_args)
  File "/home/serge/dev/python/flask/microblog/venv/lib/python3.6/site-packages/flask_httpauth.py", line 93, in decorated
    return f(*args, **kwargs)
  File "/home/serge/dev/python/flask/microblog/app/api/users.py", line 20, in get_users
    return jsonify(User.to_dict_col(users=users))
  File "/home/serge/dev/python/flask/microblog/app/models/users.py", line 116, in to_dict_col
    'id': user.id,
NameError: name 'user' is not defined
2019-03-17 12:16:57,558 INFO: Microblog startup [in /home/serge/dev/python/flask/microblog/app/__init__.py:89]
2019-03-17 12:17:01,391 ERROR: Exception on /api/users [GET] [in /home/serge/dev/python/flask/microblog/venv/lib/python3.6/site-packages/flask/app.py:1761]
Traceback (most recent call last):
  File "/home/serge/dev/python/flask/microblog/venv/lib/python3.6/site-packages/flask/app.py", line 2292, in wsgi_app
    response = self.full_dispatch_request()
  File "/home/serge/dev/python/flask/microblog/venv/lib/python3.6/site-packages/flask/app.py", line 1815, in full_dispatch_request
    rv = self.handle_user_exception(e)
  File "/home/serge/dev/python/flask/microblog/venv/lib/python3.6/site-packages/flask/app.py", line 1718, in handle_user_exception
    reraise(exc_type, exc_value, tb)
  File "/home/serge/dev/python/flask/microblog/venv/lib/python3.6/site-packages/flask/_compat.py", line 35, in reraise
    raise value
  File "/home/serge/dev/python/flask/microblog/venv/lib/python3.6/site-packages/flask/app.py", line 1813, in full_dispatch_request
    rv = self.dispatch_request()
  File "/home/serge/dev/python/flask/microblog/venv/lib/python3.6/site-packages/flask/app.py", line 1799, in dispatch_request
    return self.view_functions[rule.endpoint](**req.view_args)
  File "/home/serge/dev/python/flask/microblog/venv/lib/python3.6/site-packages/flask_httpauth.py", line 93, in decorated
    return f(*args, **kwargs)
  File "/home/serge/dev/python/flask/microblog/app/api/users.py", line 20, in get_users
    return jsonify(User.to_dict_col(users=users))
  File "/home/serge/dev/python/flask/microblog/app/models/users.py", line 116, in to_dict_col
    'id': users.id,
AttributeError: 'list' object has no attribute 'id'
2019-03-17 12:18:43,442 INFO: Microblog startup [in /home/serge/dev/python/flask/microblog/app/__init__.py:89]
