2019-03-17 11:48:30,210 ERROR: Exception on /api/users [GET] [in /home/serge/dev/python/flask/microblog/venv/lib/python3.6/site-packages/flask/app.py:1761]
Traceback (most recent call last):
  File "/home/serge/dev/python/flask/microblog/venv/lib/python3.6/site-packages/flask/app.py", line 2292, in wsgi_app
    response = self.full_dispatch_request()
  File "/home/serge/dev/python/flask/microblog/venv/lib/python3.6/site-packages/flask/app.py", line 1815, in full_dispatch_request
    rv = self.handle_user_exception(e)
  File "/home/serge/dev/python/flask/microblog/venv/lib/python3.6/site-packages/flask/app.py", line 1718, in handle_user_exception
    reraise(exc_type, exc_value, tb)
  File "/home/serge/dev/python/flask/microblog/venv/lib/python3.6/site-packages/flask/_compat.py", line 35, in reraise
    raise value
  File "/home/serge/dev/python/flask/microblog/venv/lib/python3.6/site-packages/flask/app.py", line 1813, in full_dispatch_request
    rv = self.dispatch_request()
  File "/home/serge/dev/python/flask/microblog/venv/lib/python3.6/site-packages/flask/app.py", line 1799, in dispatch_request
    return self.view_functions[rule.endpoint](**req.view_args)
  File "/home/serge/dev/python/flask/microblog/venv/lib/python3.6/site-packages/flask_httpauth.py", line 93, in decorated
    return f(*args, **kwargs)
  File "/home/serge/dev/python/flask/microblog/app/api/users.py", line 19, in get_users
    users.from_dict(users, new_user=False)
AttributeError: 'list' object has no attribute 'from_dict'
2019-03-17 11:49:11,788 INFO: Microblog startup [in /home/serge/dev/python/flask/microblog/app/__init__.py:89]
2019-03-17 11:49:19,502 ERROR: Exception on /api/users [GET] [in /home/serge/dev/python/flask/microblog/venv/lib/python3.6/site-packages/flask/app.py:1761]
Traceback (most recent call last):
  File "/home/serge/dev/python/flask/microblog/venv/lib/python3.6/site-packages/flask/app.py", line 2292, in wsgi_app
    response = self.full_dispatch_request()
  File "/home/serge/dev/python/flask/microblog/venv/lib/python3.6/site-packages/flask/app.py", line 1816, in full_dispatch_request
    return self.finalize_request(rv)
  File "/home/serge/dev/python/flask/microblog/venv/lib/python3.6/site-packages/flask/app.py", line 1831, in finalize_request
    response = self.make_response(rv)
  File "/home/serge/dev/python/flask/microblog/venv/lib/python3.6/site-packages/flask/app.py", line 1957, in make_response
    'The view function did not return a valid response. The'
TypeError: The view function did not return a valid response. The function either returned None or ended without a return statement.
2019-03-17 11:49:50,346 INFO: Microblog startup [in /home/serge/dev/python/flask/microblog/app/__init__.py:89]
2019-03-17 11:59:36,437 INFO: Microblog startup [in /home/serge/dev/python/flask/microblog/app/__init__.py:89]
2019-03-17 11:59:43,026 ERROR: Exception on /api/users [GET] [in /home/serge/dev/python/flask/microblog/venv/lib/python3.6/site-packages/flask/app.py:1761]
Traceback (most recent call last):
  File "/home/serge/dev/python/flask/microblog/venv/lib/python3.6/site-packages/flask/app.py", line 2292, in wsgi_app
    response = self.full_dispatch_request()
  File "/home/serge/dev/python/flask/microblog/venv/lib/python3.6/site-packages/flask/app.py", line 1815, in full_dispatch_request
    rv = self.handle_user_exception(e)
  File "/home/serge/dev/python/flask/microblog/venv/lib/python3.6/site-packages/flask/app.py", line 1718, in handle_user_exception
    reraise(exc_type, exc_value, tb)
  File "/home/serge/dev/python/flask/microblog/venv/lib/python3.6/site-packages/flask/_compat.py", line 35, in reraise
    raise value
  File "/home/serge/dev/python/flask/microblog/venv/lib/python3.6/site-packages/flask/app.py", line 1813, in full_dispatch_request
    rv = self.dispatch_request()
  File "/home/serge/dev/python/flask/microblog/venv/lib/python3.6/site-packages/flask/app.py", line 1799, in dispatch_request
    return self.view_functions[rule.endpoint](**req.view_args)
  File "/home/serge/dev/python/flask/microblog/venv/lib/python3.6/site-packages/flask_httpauth.py", line 93, in decorated
    return f(*args, **kwargs)
  File "/home/serge/dev/python/flask/microblog/app/api/users.py", line 20, in get_users
    return jsonify(users.to_dict_col())
AttributeError: 'list' object has no attribute 'to_dict_col'
2019-03-17 12:03:06,662 INFO: Microblog startup [in /home/serge/dev/python/flask/microblog/app/__init__.py:89]
2019-03-17 12:07:55,375 INFO: Microblog startup [in /home/serge/dev/python/flask/microblog/app/__init__.py:89]
2019-03-17 12:07:59,642 ERROR: Exception on /api/users [GET] [in /home/serge/dev/python/flask/microblog/venv/lib/python3.6/site-packages/flask/app.py:1761]
Traceback (most recent call last):
  File "/home/serge/dev/python/flask/microblog/venv/lib/python3.6/site-packages/flask/app.py", line 2292, in wsgi_app
    response = self.full_dispatch_request()
  File "/home/serge/dev/python/flask/microblog/venv/lib/python3.6/site-packages/flask/app.py", line 1815, in full_dispatch_request
    rv = self.handle_user_exception(e)
  File "/home/serge/dev/python/flask/microblog/venv/lib/python3.6/site-packages/flask/app.py", line 1718, in handle_user_exception
    reraise(exc_type, exc_value, tb)
  File "/home/serge/dev/python/flask/microblog/venv/lib/python3.6/site-packages/flask/_compat.py", line 35, in reraise
    raise value
  File "/home/serge/dev/python/flask/microblog/venv/lib/python3.6/site-packages/flask/app.py", line 1813, in full_dispatch_request
    rv = self.dispatch_request()
  File "/home/serge/dev/python/flask/microblog/venv/lib/python3.6/site-packages/flask/app.py", line 1799, in dispatch_request
    return self.view_functions[rule.endpoint](**req.view_args)
  File "/home/serge/dev/python/flask/microblog/venv/lib/python3.6/site-packages/flask_httpauth.py", line 93, in decorated
    return f(*args, **kwargs)
  File "/home/serge/dev/python/flask/microblog/app/api/users.py", line 20, in get_users
    return jsonify(User.to_dict_col(users=users))
  File "/home/serge/dev/python/flask/microblog/app/models/users.py", line 116, in to_dict_col
    field: user[field],
NameError: name 'user' is not defined
2019-03-17 12:08:26,055 INFO: Microblog startup [in /home/serge/dev/python/flask/microblog/app/__init__.py:89]
2019-03-17 12:08:31,917 ERROR: Exception on /api/users [GET] [in /home/serge/dev/python/flask/microblog/venv/lib/python3.6/site-packages/flask/app.py:1761]
Traceback (most recent call last):
  File "/home/serge/dev/python/flask/microblog/venv/lib/python3.6/site-packages/flask/app.py", line 2292, in wsgi_app
    response = self.full_dispatch_request()
  File "/home/serge/dev/python/flask/microblog/venv/lib/python3.6/site-packages/flask/app.py", line 1815, in full_dispatch_request
    rv = self.handle_user_exception(e)
  File "/home/serge/dev/python/flask/microblog/venv/lib/python3.6/site-packages/flask/app.py", line 1718, in handle_user_exception
    reraise(exc_type, exc_value, tb)
  File "/home/serge/dev/python/flask/microblog/venv/lib/python3.6/site-packages/flask/_compat.py", line 35, in reraise
    raise value
  File "/home/serge/dev/python/flask/microblog/venv/lib/python3.6/site-packages/flask/app.py", line 1813, in full_dispatch_request
    rv = self.dispatch_request()
  File "/home/serge/dev/python/flask/microblog/venv/lib/python3.6/site-packages/flask/app.py", line 1799, in dispatch_request
    return self.view_functions[rule.endpoint](**req.view_args)
  File "/home/serge/dev/python/flask/microblog/venv/lib/python3.6/site-packages/flask_httpauth.py", line 93, in decorated
    return f(*args, **kwargs)
  File "/home/serge/dev/python/flask/microblog/app/api/users.py", line 20, in get_users
    return jsonify(User.to_dict_col(users=users))
  File "/home/serge/dev/python/flask/microblog/app/models/users.py", line 116, in to_dict_col
    field: users[field],
TypeError: list indices must be integers or slices, not str
2019-03-17 12:09:48,155 INFO: Microblog startup [in /home/serge/dev/python/flask/microblog/app/__init__.py:89]
2019-03-17 12:09:52,259 ERROR: Exception on /api/users [GET] [in /home/serge/dev/python/flask/microblog/venv/lib/python3.6/site-packages/flask/app.py:1761]
Traceback (most recent call last):
  File "/home/serge/dev/python/flask/microblog/venv/lib/python3.6/site-packages/flask/app.py", line 2292, in wsgi_app
    response = self.full_dispatch_request()
  File "/home/serge/dev/python/flask/microblog/venv/lib/python3.6/site-packages/flask/app.py", line 1815, in full_dispatch_request
    rv = self.handle_user_exception(e)
  File "/home/serge/dev/python/flask/microblog/venv/lib/python3.6/site-packages/flask/app.py", line 1718, in handle_user_exception
    reraise(exc_type, exc_value, tb)
  File "/home/serge/dev/python/flask/microblog/venv/lib/python3.6/site-packages/flask/_compat.py", line 35, in reraise
    raise value
  File "/home/serge/dev/python/flask/microblog/venv/lib/python3.6/site-packages/flask/app.py", line 1813, in full_dispatch_request
    rv = self.dispatch_request()
  File "/home/serge/dev/python/flask/microblog/venv/lib/python3.6/site-packages/flask/app.py", line 1799, in dispatch_request
    return self.view_functions[rule.endpoint](**req.view_args)
  File "/home/serge/dev/python/flask/microblog/venv/lib/python3.6/site-packages/flask_httpauth.py", line 93, in decorated
    return f(*args, **kwargs)
  File "/home/serge/dev/python/flask/microblog/app/api/users.py", line 20, in get_users
    return jsonify(User.to_dict_col(users=users))
  File "/home/serge/dev/python/flask/microblog/app/models/users.py", line 117, in to_dict_col
    field: users[x],
TypeError: list indices must be integers or slices, not User
2019-03-17 12:11:38,737 INFO: Microblog startup [in /home/serge/dev/python/flask/microblog/app/__init__.py:89]
