2019-03-17 11:35:04,928 ERROR: Exception on /api/tokens [POST] [in /home/serge/dev/python/flask/microblog/venv/lib/python3.6/site-packages/flask/app.py:1761]
Traceback (most recent call last):
  File "/home/serge/dev/python/flask/microblog/venv/lib/python3.6/site-packages/flask/app.py", line 2292, in wsgi_app
    response = self.full_dispatch_request()
  File "/home/serge/dev/python/flask/microblog/venv/lib/python3.6/site-packages/flask/app.py", line 1815, in full_dispatch_request
    rv = self.handle_user_exception(e)
  File "/home/serge/dev/python/flask/microblog/venv/lib/python3.6/site-packages/flask/app.py", line 1718, in handle_user_exception
    reraise(exc_type, exc_value, tb)
  File "/home/serge/dev/python/flask/microblog/venv/lib/python3.6/site-packages/flask/_compat.py", line 35, in reraise
    raise value
  File "/home/serge/dev/python/flask/microblog/venv/lib/python3.6/site-packages/flask/app.py", line 1813, in full_dispatch_request
    rv = self.dispatch_request()
  File "/home/serge/dev/python/flask/microblog/venv/lib/python3.6/site-packages/flask/app.py", line 1799, in dispatch_request
    return self.view_functions[rule.endpoint](**req.view_args)
  File "/home/serge/dev/python/flask/microblog/venv/lib/python3.6/site-packages/flask_httpauth.py", line 93, in decorated
    return f(*args, **kwargs)
  File "/home/serge/dev/python/flask/microblog/app/api/tokens.py", line 10, in get_token
    token = g.current_user.get_token()
  File "/home/serge/dev/python/flask/microblog/app/models/users.py", line 133, in get_token
    if self.token and self.token_expiration > now + timedelta(seconds=60):
AttributeError: 'User' object has no attribute 'token'
2019-03-17 11:38:19,908 INFO: Microblog startup [in /home/serge/dev/python/flask/microblog/app/__init__.py:89]
2019-03-17 11:38:25,955 INFO: Microblog startup [in /home/serge/dev/python/flask/microblog/app/__init__.py:89]
2019-03-17 11:38:35,033 INFO: Microblog startup [in /home/serge/dev/python/flask/microblog/app/__init__.py:89]
2019-03-17 11:39:16,049 ERROR: Exception on /api/users [GET] [in /home/serge/dev/python/flask/microblog/venv/lib/python3.6/site-packages/flask/app.py:1761]
Traceback (most recent call last):
  File "/home/serge/dev/python/flask/microblog/venv/lib/python3.6/site-packages/flask/app.py", line 2292, in wsgi_app
    response = self.full_dispatch_request()
  File "/home/serge/dev/python/flask/microblog/venv/lib/python3.6/site-packages/flask/app.py", line 1815, in full_dispatch_request
    rv = self.handle_user_exception(e)
  File "/home/serge/dev/python/flask/microblog/venv/lib/python3.6/site-packages/flask/app.py", line 1718, in handle_user_exception
    reraise(exc_type, exc_value, tb)
  File "/home/serge/dev/python/flask/microblog/venv/lib/python3.6/site-packages/flask/_compat.py", line 35, in reraise
    raise value
  File "/home/serge/dev/python/flask/microblog/venv/lib/python3.6/site-packages/flask/app.py", line 1813, in full_dispatch_request
    rv = self.dispatch_request()
  File "/home/serge/dev/python/flask/microblog/venv/lib/python3.6/site-packages/flask/app.py", line 1799, in dispatch_request
    return self.view_functions[rule.endpoint](**req.view_args)
  File "/home/serge/dev/python/flask/microblog/venv/lib/python3.6/site-packages/flask_httpauth.py", line 93, in decorated
    return f(*args, **kwargs)
  File "/home/serge/dev/python/flask/microblog/app/api/users.py", line 20, in get_users
    data = User.to_collection_dict(User.query, page, per_page, 'api.get_users')
AttributeError: type object 'User' has no attribute 'to_collection_dict'
2019-03-17 11:43:39,910 INFO: Microblog startup [in /home/serge/dev/python/flask/microblog/app/__init__.py:89]
2019-03-17 11:43:45,482 ERROR: Exception on /api/users [GET] [in /home/serge/dev/python/flask/microblog/venv/lib/python3.6/site-packages/flask/app.py:1761]
Traceback (most recent call last):
  File "/home/serge/dev/python/flask/microblog/venv/lib/python3.6/site-packages/flask/app.py", line 2292, in wsgi_app
    response = self.full_dispatch_request()
  File "/home/serge/dev/python/flask/microblog/venv/lib/python3.6/site-packages/flask/app.py", line 1815, in full_dispatch_request
    rv = self.handle_user_exception(e)
  File "/home/serge/dev/python/flask/microblog/venv/lib/python3.6/site-packages/flask/app.py", line 1718, in handle_user_exception
    reraise(exc_type, exc_value, tb)
  File "/home/serge/dev/python/flask/microblog/venv/lib/python3.6/site-packages/flask/_compat.py", line 35, in reraise
    raise value
  File "/home/serge/dev/python/flask/microblog/venv/lib/python3.6/site-packages/flask/app.py", line 1813, in full_dispatch_request
    rv = self.dispatch_request()
  File "/home/serge/dev/python/flask/microblog/venv/lib/python3.6/site-packages/flask/app.py", line 1799, in dispatch_request
    return self.view_functions[rule.endpoint](**req.view_args)
  File "/home/serge/dev/python/flask/microblog/venv/lib/python3.6/site-packages/flask_httpauth.py", line 93, in decorated
    return f(*args, **kwargs)
  File "/home/serge/dev/python/flask/microblog/app/api/users.py", line 18, in get_users
    data = User.query.all().to_dict()
AttributeError: 'list' object has no attribute 'to_dict'
2019-03-17 11:45:19,277 INFO: Microblog startup [in /home/serge/dev/python/flask/microblog/app/__init__.py:89]
2019-03-17 11:45:23,340 ERROR: Exception on /api/users [GET] [in /home/serge/dev/python/flask/microblog/venv/lib/python3.6/site-packages/flask/app.py:1761]
Traceback (most recent call last):
  File "/home/serge/dev/python/flask/microblog/venv/lib/python3.6/site-packages/flask/app.py", line 2292, in wsgi_app
    response = self.full_dispatch_request()
  File "/home/serge/dev/python/flask/microblog/venv/lib/python3.6/site-packages/flask/app.py", line 1815, in full_dispatch_request
    rv = self.handle_user_exception(e)
  File "/home/serge/dev/python/flask/microblog/venv/lib/python3.6/site-packages/flask/app.py", line 1718, in handle_user_exception
    reraise(exc_type, exc_value, tb)
  File "/home/serge/dev/python/flask/microblog/venv/lib/python3.6/site-packages/flask/_compat.py", line 35, in reraise
    raise value
  File "/home/serge/dev/python/flask/microblog/venv/lib/python3.6/site-packages/flask/app.py", line 1813, in full_dispatch_request
    rv = self.dispatch_request()
  File "/home/serge/dev/python/flask/microblog/venv/lib/python3.6/site-packages/flask/app.py", line 1799, in dispatch_request
    return self.view_functions[rule.endpoint](**req.view_args)
  File "/home/serge/dev/python/flask/microblog/venv/lib/python3.6/site-packages/flask_httpauth.py", line 93, in decorated
    return f(*args, **kwargs)
  File "/home/serge/dev/python/flask/microblog/app/api/users.py", line 19, in get_users
    return jsonify(users.to_dict())
AttributeError: 'list' object has no attribute 'to_dict'
2019-03-17 11:46:23,874 INFO: Microblog startup [in /home/serge/dev/python/flask/microblog/app/__init__.py:89]
2019-03-17 11:46:28,215 ERROR: Exception on /api/users [GET] [in /home/serge/dev/python/flask/microblog/venv/lib/python3.6/site-packages/flask/app.py:1761]
Traceback (most recent call last):
  File "/home/serge/dev/python/flask/microblog/venv/lib/python3.6/site-packages/flask/app.py", line 2292, in wsgi_app
    response = self.full_dispatch_request()
  File "/home/serge/dev/python/flask/microblog/venv/lib/python3.6/site-packages/flask/app.py", line 1815, in full_dispatch_request
    rv = self.handle_user_exception(e)
  File "/home/serge/dev/python/flask/microblog/venv/lib/python3.6/site-packages/flask/app.py", line 1718, in handle_user_exception
    reraise(exc_type, exc_value, tb)
  File "/home/serge/dev/python/flask/microblog/venv/lib/python3.6/site-packages/flask/_compat.py", line 35, in reraise
    raise value
  File "/home/serge/dev/python/flask/microblog/venv/lib/python3.6/site-packages/flask/app.py", line 1813, in full_dispatch_request
    rv = self.dispatch_request()
  File "/home/serge/dev/python/flask/microblog/venv/lib/python3.6/site-packages/flask/app.py", line 1799, in dispatch_request
    return self.view_functions[rule.endpoint](**req.view_args)
  File "/home/serge/dev/python/flask/microblog/venv/lib/python3.6/site-packages/flask_httpauth.py", line 93, in decorated
    return f(*args, **kwargs)
  File "/home/serge/dev/python/flask/microblog/app/api/users.py", line 19, in get_users
    return jsonify(users)
  File "/home/serge/dev/python/flask/microblog/venv/lib/python3.6/site-packages/flask/json/__init__.py", line 321, in jsonify
    dumps(data, indent=indent, separators=separators) + '\n',
  File "/home/serge/dev/python/flask/microblog/venv/lib/python3.6/site-packages/flask/json/__init__.py", line 179, in dumps
    rv = _json.dumps(obj, **kwargs)
  File "/home/serge/anaconda3/lib/python3.6/json/__init__.py", line 238, in dumps
    **kw).encode(obj)
  File "/home/serge/anaconda3/lib/python3.6/json/encoder.py", line 199, in encode
    chunks = self.iterencode(o, _one_shot=True)
  File "/home/serge/anaconda3/lib/python3.6/json/encoder.py", line 257, in iterencode
    return _iterencode(o, 0)
  File "/home/serge/dev/python/flask/microblog/venv/lib/python3.6/site-packages/flask/json/__init__.py", line 81, in default
    return _json.JSONEncoder.default(self, o)
  File "/home/serge/anaconda3/lib/python3.6/json/encoder.py", line 180, in default
    o.__class__.__name__)
TypeError: Object of type 'User' is not JSON serializable
2019-03-17 11:48:25,633 INFO: Microblog startup [in /home/serge/dev/python/flask/microblog/app/__init__.py:89]
